{
  "count": 739,
  "next": "https://ll.thespacedevs.com/2.2.0/astronaut/?format=json&limit=10&offset=20",
  "previous": "https://ll.thespacedevs.com/2.2.0/astronaut/?format=json&limit=10",
  "results": [
    {
      "id": 12,
      "url": "https://ll.thespacedevs.com/2.2.0/astronaut/12/?format=json",
      "name": "Alexander Gerst",
      "status": {
        "id": 1,
        "name": "Active"
      },
      "type": {
        "id": 2,
        "name": "Government"
      },
      "in_space": false,
      "time_in_space": "P362DT1H49M38S",
      "eva_time": "PT6H13M",
      "age": 47,
      "date_of_birth": "1976-05-03",
      "date_of_death": null,
      "nationality": "German",
      "bio": "Alexander Gerst is a German European Space Agency astronaut and geophysicist, who was selected in 2009 to take part in space training.\r\nHe was part of the International Space Station Expedition 40 and 41 from May to November 2014.\r\nGerst returned to space on June 6, 2018, as part of Expedition 56/57 as the ISS Commander.",
      "twitter": "https://twitter.com/Astro_Alex",
      "instagram": "https://www.instagram.com/astro_alex_esa/",
      "wiki": "https://en.wikipedia.org/wiki/Alexander_Gerst",
      "agency": {
        "id": 27,
        "url": "https://ll.thespacedevs.com/2.2.0/agencies/27/?format=json",
        "name": "European Space Agency",
        "featured": false,
        "type": "Multinational",
        "country_code": "AUT,BEL,CZE,DNK,FIN,FRA,DEU,GRC,IRE,ITA,LUZ,NLD,NOR,POL,PRT,ROU,ESP,SWE,CHE,GBR",
        "abbrev": "ESA",
        "description": "The European Space Agency is an intergovernmental organisation of 22 member states. Established in 1975 and headquartered in Paris, France, ESA has a worldwide staff of about 2,000 employees.\r\n\r\nESA's space flight programme includes human spaceflight (mainly through participation in the International Space Station program); the launch and operation of unmanned exploration missions to other planets and the Moon; Earth observation, science and telecommunication; designing launch vehicles; and maintaining a major spaceport, the Guiana Space Centre at Kourou, French Guiana.",
        "administrator": "Director General: Josef Aschbacher",
        "founding_year": "1975",
        "launchers": "",
        "spacecraft": "",
        "parent": null,
        "image_url": null,
        "logo_url": "https://spacelaunchnow-prod-east.nyc3.digitaloceanspaces.com/media/logo/european2520space2520agency_logo_20221130101442.png"
      },
      "profile_image": "https://spacelaunchnow-prod-east.nyc3.digitaloceanspaces.com/media/astronaut_images/alexander2520gerst_image_20181127211820.jpg",
      "profile_image_thumbnail": "https://spacelaunchnow-prod-east.nyc3.digitaloceanspaces.com/media/astronaut_images/alexander_gerst_thumbnail_20220911034407.jpeg",
      "flights_count": 2,
      "landings_count": 2,
      "spacewalks_count": 1,
      "last_flight": "2018-06-06T11:12:41Z",
      "first_flight": "2014-05-28T19:57:41Z"
    },
    {
      "id": 13,
      "url": "https://ll.thespacedevs.com/2.2.0/astronaut/13/?format=json",
      "name": "Richard Mastracchio",
      "status": {
        "id": 2,
        "name": "Retired"
      },
      "type": {
        "id": 2,
        "name": "Government"
      },
      "in_space": false,
      "time_in_space": "P227DT13H36M54S",
      "eva_time": "P2DT5H2M",
      "age": 63,
      "date_of_birth": "1960-02-11",
      "date_of_death": null,
      "nationality": "American",
      "bio": "Richard Alan \"Rick\" Mastracchio is an American engineer and former NASA astronaut. He has flown on three NASA Space Shuttle missions as a mission specialist in addition to serving as a Flight Engineer on the Soyuz TMA-11M (Expedition 38/Expedition 39) long duration mission aboard the International Space Station. He is currently the Senior Director of Operations for Commercial Resupply Services at Orbital ATK.",
      "twitter": "https://twitter.com/AstroRM",
      "instagram": null,
      "wiki": "https://en.wikipedia.org/wiki/Richard_Mastracchio",
      "agency": {
        "id": 44,
        "url": "https://ll.thespacedevs.com/2.2.0/agencies/44/?format=json",
        "name": "National Aeronautics and Space Administration",
        "featured": true,
        "type": "Government",
        "country_code": "USA",
        "abbrev": "NASA",
        "description": "The National Aeronautics and Space Administration is an independent agency of the executive branch of the United States federal government responsible for the civilian space program, as well as aeronautics and aerospace research. NASA have many launch facilities but most are inactive. The most commonly used pad will be LC-39B at Kennedy Space Center in Florida.",
        "administrator": "Administrator: Bill Nelson",
        "founding_year": "1958",
        "launchers": "Space Shuttle | SLS",
        "spacecraft": "Orion",
        "parent": null,
        "image_url": "https://spacelaunchnow-prod-east.nyc3.digitaloceanspaces.com/media/agency_images/national2520aeronautics2520and2520space2520administration_image_20190207032448.jpeg",
        "logo_url": "https://spacelaunchnow-prod-east.nyc3.digitaloceanspaces.com/media/logo/national2520aeronautics2520and2520space2520administration_logo_20190207032448.png"
      },
      "profile_image": "https://spacelaunchnow-prod-east.nyc3.digitaloceanspaces.com/media/astronaut_images/richard_mastrac_image_20220911033746.jpeg",
      "profile_image_thumbnail": "https://spacelaunchnow-prod-east.nyc3.digitaloceanspaces.com/media/astronaut_images/richard_mastrac_thumbnail_20220911033746.jpeg",
      "flights_count": 4,
      "landings_count": 4,
      "spacewalks_count": 9,
      "last_flight": "2013-11-07T04:14:15Z",
      "first_flight": "2000-09-08T12:45:47Z"
    },
    {
      "id": 14,
      "url": "https://ll.thespacedevs.com/2.2.0/astronaut/14/?format=json",
      "name": "Michael S. Hopkins",
      "status": {
        "id": 1,
        "name": "Active"
      },
      "type": {
        "id": 2,
        "name": "Government"
      },
      "in_space": false,
      "time_in_space": "P333DT12H54M53S",
      "eva_time": "P1DT8H1M",
      "age": 54,
      "date_of_birth": "1968-12-28",
      "date_of_death": null,
      "nationality": "American",
      "bio": "Michael Scott Hopkins (born December 28, 1968) is a Colonel in the U.S. Air Force, and a current NASA astronaut. Hopkins was selected in June 2009 as a member of the NASA Astronaut Group 20. He made his first spaceflight as a Flight Engineer on Soyuz TMA-10M/Expedition 37/Expedition 38, from September 2013 until March 2014. He was the first member of his astronaut class to fly in space. As well as being the first member of his class to fly in space, he is set to become the first member of his class to return to space in 2019 as Commander of the first operational SpaceX Crew Dragon mission to the International Space Station.",
      "twitter": "https://twitter.com/Astro_illini",
      "instagram": null,
      "wiki": "https://en.wikipedia.org/wiki/Michael_S._Hopkins",
      "agency": {
        "id": 44,
        "url": "https://ll.thespacedevs.com/2.2.0/agencies/44/?format=json",
        "name": "National Aeronautics and Space Administration",
        "featured": true,
        "type": "Government",
        "country_code": "USA",
        "abbrev": "NASA",
        "description": "The National Aeronautics and Space Administration is an independent agency of the executive branch of the United States federal government responsible for the civilian space program, as well as aeronautics and aerospace research. NASA have many launch facilities but most are inactive. The most commonly used pad will be LC-39B at Kennedy Space Center in Florida.",
        "administrator": "Administrator: Bill Nelson",
        "founding_year": "1958",
        "launchers": "Space Shuttle | SLS",
        "spacecraft": "Orion",
        "parent": null,
        "image_url": "https://spacelaunchnow-prod-east.nyc3.digitaloceanspaces.com/media/agency_images/national2520aeronautics2520and2520space2520administration_image_20190207032448.jpeg",
        "logo_url": "https://spacelaunchnow-prod-east.nyc3.digitaloceanspaces.com/media/logo/national2520aeronautics2520and2520space2520administration_logo_20190207032448.png"
      },
      "profile_image": "https://spacelaunchnow-prod-east.nyc3.digitaloceanspaces.com/media/astronaut_images/michael2520s.2520hopkins_image_20181127212118.jpg",
      "profile_image_thumbnail": "https://spacelaunchnow-prod-east.nyc3.digitaloceanspaces.com/media/astronaut_images/michael_s._hopk_thumbnail_20220911033602.jpeg",
      "flights_count": 2,
      "landings_count": 2,
      "spacewalks_count": 5,
      "last_flight": "2020-11-16T00:27:17Z",
      "first_flight": "2013-09-25T20:58:50Z"
    },
    {
      "id": 15,
      "url": "https://ll.thespacedevs.com/2.2.0/astronaut/15/?format=json",
      "name": "Douglas G. Hurley",
      "status": {
        "id": 2,
        "name": "Retired"
      },
      "type": {
        "id": 2,
        "name": "Government"
      },
      "in_space": false,
      "time_in_space": "P92DT10H38M15S",
      "eva_time": "P0D",
      "age": 56,
      "date_of_birth": "1966-10-21",
      "date_of_death": null,
      "nationality": "American",
      "bio": "Douglas Gerald Hurley is an engineer and retired NASA astronaut. He piloted Space Shuttle mission STS-127, which launched July 15, 2009. He was assigned and flew as pilot for STS-135, the final flight of the Space Shuttle program, in July 2011. He is also the first Marine to fly the F/A-18 E/F Super Hornet. His call sign is \"Chunky\" and was sometimes referred to by this name on the communication loops.",
      "twitter": "https://twitter.com/Astro_Doug",
      "instagram": "https://www.instagram.com/astro.doug",
      "wiki": "https://en.wikipedia.org/wiki/Douglas_G._Hurley",
      "agency": {
        "id": 44,
        "url": "https://ll.thespacedevs.com/2.2.0/agencies/44/?format=json",
        "name": "National Aeronautics and Space Administration",
        "featured": true,
        "type": "Government",
        "country_code": "USA",
        "abbrev": "NASA",
        "description": "The National Aeronautics and Space Administration is an independent agency of the executive branch of the United States federal government responsible for the civilian space program, as well as aeronautics and aerospace research. NASA have many launch facilities but most are inactive. The most commonly used pad will be LC-39B at Kennedy Space Center in Florida.",
        "administrator": "Administrator: Bill Nelson",
        "founding_year": "1958",
        "launchers": "Space Shuttle | SLS",
        "spacecraft": "Orion",
        "parent": null,
        "image_url": "https://spacelaunchnow-prod-east.nyc3.digitaloceanspaces.com/media/agency_images/national2520aeronautics2520and2520space2520administration_image_20190207032448.jpeg",
        "logo_url": "https://spacelaunchnow-prod-east.nyc3.digitaloceanspaces.com/media/logo/national2520aeronautics2520and2520space2520administration_logo_20190207032448.png"
      },
      "profile_image": "https://spacelaunchnow-prod-east.nyc3.digitaloceanspaces.com/media/astronaut_images/douglas_g._hurl_image_20200421075742.jpeg",
      "profile_image_thumbnail": "https://spacelaunchnow-prod-east.nyc3.digitaloceanspaces.com/media/astronaut_images/douglas_g._hurl_thumbnail_20220911034316.jpeg",
      "flights_count": 3,
      "landings_count": 3,
      "spacewalks_count": 0,
      "last_flight": "2020-05-30T19:22:45Z",
      "first_flight": "2009-07-15T22:03:00Z"
    },
    {
      "id": 16,
      "url": "https://ll.thespacedevs.com/2.2.0/astronaut/16/?format=json",
      "name": "Christopher Ferguson",
      "status": {
        "id": 1,
        "name": "Active"
      },
      "type": {
        "id": 7,
        "name": "Commercial"
      },
      "in_space": false,
      "time_in_space": "P40DT10H4M5S",
      "eva_time": "P0D",
      "age": 61,
      "date_of_birth": "1961-09-01",
      "date_of_death": null,
      "nationality": "American",
      "bio": "Christopher J. Ferguson is a Boeing commercial astronaut and a retired United States Navy Captain and NASA astronaut. He was the pilot of Space Shuttle Atlantis on his first mission to space, STS-115, which launched on September 9, 2006 and returned to Earth on September 21, 2006. He then commanded STS-126 aboard Space Shuttle Endeavour. In 2011, he was assigned as commander of STS-135, which was the final mission of the space shuttle program.\r\n\r\nOn December 9, 2011, he retired from NASA and is now currently director of Crew and Mission Operations for Boeing's Commercial Crew Program. In August 2018, Ferguson was assigned to the first test flight of the Boeing CST-100 Starliner.",
      "twitter": "https://twitter.com/Astro_Ferg",
      "instagram": null,
      "wiki": "https://en.wikipedia.org/wiki/Christopher_Ferguson",
      "agency": {
        "id": 80,
        "url": "https://ll.thespacedevs.com/2.2.0/agencies/80/?format=json",
        "name": "Boeing",
        "featured": false,
        "type": "Commercial",
        "country_code": "USA",
        "abbrev": "BA",
        "description": "Boeing as a space agency has recently provided NASA with assistance on sending humans to the ISS from American with both their construction of the CST-100 Starliner crew capsule and their work on the SLS Avionics to return to the moon and beyond. Their ventures in GPS satellite systems and Tracking and Data Relay Satellites provide information about earth-orbiting craft to stations on the ground. They also enable research on the ISS and will be helping with the construction of the Lunar Gateway.",
        "administrator": "Leanne Caret",
        "founding_year": "2002",
        "launchers": "SLS",
        "spacecraft": "Starliner",
        "parent": null,
        "image_url": null,
        "logo_url": "https://spacelaunchnow-prod-east.nyc3.digitaloceanspaces.com/media/logo/boeing_logo_20201128183345.png"
      },
      "profile_image": "https://spacelaunchnow-prod-east.nyc3.digitaloceanspaces.com/media/astronaut_images/christopher2520ferguson_image_20181127212540.jpg",
      "profile_image_thumbnail": "https://spacelaunchnow-prod-east.nyc3.digitaloceanspaces.com/media/astronaut_images/christopher_fer_thumbnail_20220911033705.jpeg",
      "flights_count": 3,
      "landings_count": 3,
      "spacewalks_count": 0,
      "last_flight": "2011-07-08T15:29:00Z",
      "first_flight": "2006-09-09T15:14:55Z"
    },
    {
      "id": 17,
      "url": "https://ll.thespacedevs.com/2.2.0/astronaut/17/?format=json",
      "name": "Oleg Artemyev",
      "status": {
        "id": 1,
        "name": "Active"
      },
      "type": {
        "id": 2,
        "name": "Government"
      },
      "in_space": false,
      "time_in_space": "P560DT18H7M55S",
      "eva_time": "P2DT5H31M",
      "age": 52,
      "date_of_birth": "1970-12-28",
      "date_of_death": null,
      "nationality": "Russian",
      "bio": "Oleg Germanovich Artemyev (Russian: Олег Германович Артемьев) is a Russian Cosmonaut for the Russian Federal Space Agency. He was selected as part of the RKKE-15 Cosmonaut group in 2003. He was a Flight engineer of Expedition 39 and 40 to the International Space Station, and in 2018 he returned to space as the Commander of Soyuz MS-08.",
      "twitter": "https://twitter.com/OlegMKS",
      "instagram": "https://www.instagram.com/olegmks/",
      "wiki": "https://en.wikipedia.org/wiki/Oleg_Artemyev",
      "agency": {
        "id": 63,
        "url": "https://ll.thespacedevs.com/2.2.0/agencies/63/?format=json",
        "name": "Russian Federal Space Agency (ROSCOSMOS)",
        "featured": true,
        "type": "Government",
        "country_code": "RUS",
        "abbrev": "RFSA",
        "description": "The Roscosmos State Corporation for Space Activities, commonly known as Roscosmos, is the governmental body responsible for the space science program of the Russian Federation and general aerospace research. Soyuz has many launch locations the Russian sites are Baikonur, Plesetsk and Vostochny however Ariane also purchases the vehicle and launches it from French Guiana.",
        "administrator": "Administrator: Yuri Borisov",
        "founding_year": "1992",
        "launchers": "Soyuz",
        "spacecraft": "Soyuz",
        "parent": null,
        "image_url": "https://spacelaunchnow-prod-east.nyc3.digitaloceanspaces.com/media/agency_images/russian2520federal2520space2520agency25202528roscosmos2529_image_20190207032459.jpeg",
        "logo_url": "https://spacelaunchnow-prod-east.nyc3.digitaloceanspaces.com/media/logo/russian2520federal2520space2520agency25202528roscosmos2529_logo_20190207032459.png"
      },
      "profile_image": "https://spacelaunchnow-prod-east.nyc3.digitaloceanspaces.com/media/astronaut_images/oleg_artemyev_image_20220316173454.jpg",
      "profile_image_thumbnail": "https://spacelaunchnow-prod-east.nyc3.digitaloceanspaces.com/media/astronaut_images/oleg_artemyev_thumbnail_20220911034027.jpeg",
      "flights_count": 3,
      "landings_count": 3,
      "spacewalks_count": 8,
      "last_flight": "2022-03-18T15:55:19Z",
      "first_flight": "2014-03-25T21:17:23Z"
    },
    {
      "id": 18,
      "url": "https://ll.thespacedevs.com/2.2.0/astronaut/18/?format=json",
      "name": "Andrew J. Feustel",
      "status": {
        "id": 1,
        "name": "Active"
      },
      "type": {
        "id": 2,
        "name": "Government"
      },
      "in_space": false,
      "time_in_space": "P225DT9H16M13S",
      "eva_time": "P2DT13H48M",
      "age": 57,
      "date_of_birth": "1965-08-25",
      "date_of_death": null,
      "nationality": "American",
      "bio": "Andrew Jay \"Drew\" Feustel is a geophysicist and a NASA astronaut. Following several years working as a geophysicist, Feustel was selected as an astronaut candidate by NASA in July 2000. His first spaceflight in May 2009, STS-125, lasted just under 13 days. This was a mission with six other astronauts to repair the Hubble Space Telescope, aboard Space Shuttle Atlantis. Feustel performed three spacewalks during the mission. His second spaceflight was STS-134, which launched on May 16, 2011 and landed on June 1, 2011. STS-134 was the penultimate Space Shuttle flight. Feustel returned to space on March 21, 2018 on Soyuz MS-08 with Expedition 55/56. For expedition 56, he commanded the International Space Station, before handing over to Alexander Gerst on October 3, 2018.",
      "twitter": "https://twitter.com/Astro_Feustel",
      "instagram": "https://www.instagram.com/astro_feustel/",
      "wiki": "https://en.wikipedia.org/wiki/Andrew_J._Feustel",
      "agency": {
        "id": 44,
        "url": "https://ll.thespacedevs.com/2.2.0/agencies/44/?format=json",
        "name": "National Aeronautics and Space Administration",
        "featured": true,
        "type": "Government",
        "country_code": "USA",
        "abbrev": "NASA",
        "description": "The National Aeronautics and Space Administration is an independent agency of the executive branch of the United States federal government responsible for the civilian space program, as well as aeronautics and aerospace research. NASA have many launch facilities but most are inactive. The most commonly used pad will be LC-39B at Kennedy Space Center in Florida.",
        "administrator": "Administrator: Bill Nelson",
        "founding_year": "1958",
        "launchers": "Space Shuttle | SLS",
        "spacecraft": "Orion",
        "parent": null,
        "image_url": "https://spacelaunchnow-prod-east.nyc3.digitaloceanspaces.com/media/agency_images/national2520aeronautics2520and2520space2520administration_image_20190207032448.jpeg",
        "logo_url": "https://spacelaunchnow-prod-east.nyc3.digitaloceanspaces.com/media/logo/national2520aeronautics2520and2520space2520administration_logo_20190207032448.png"
      },
      "profile_image": "https://spacelaunchnow-prod-east.nyc3.digitaloceanspaces.com/media/astronaut_images/andrew2520j.2520feustel_image_20181127212906.jpg",
      "profile_image_thumbnail": "https://spacelaunchnow-prod-east.nyc3.digitaloceanspaces.com/media/astronaut_images/andrew_j._feust_thumbnail_20220911033721.jpeg",
      "flights_count": 3,
      "landings_count": 3,
      "spacewalks_count": 9,
      "last_flight": "2018-03-21T17:44:23Z",
      "first_flight": "2009-05-11T18:01:56Z"
    },
    {
      "id": 19,
      "url": "https://ll.thespacedevs.com/2.2.0/astronaut/19/?format=json",
      "name": "Richard R. Arnold",
      "status": {
        "id": 1,
        "name": "Active"
      },
      "type": {
        "id": 2,
        "name": "Government"
      },
      "in_space": false,
      "time_in_space": "P209DT13H30M37S",
      "eva_time": "P1DT8H4M",
      "age": 59,
      "date_of_birth": "1963-11-26",
      "date_of_death": null,
      "nationality": "American",
      "bio": "Richard Robert \"Ricky\" Arnold II is an American educator and a NASA astronaut. He flew on Space Shuttle mission STS-119, which launched March 15, 2009 and delivered the final set of solar arrays to the International Space Station. He launched again in 2018 to the ISS, onboard Soyuz MS-08.",
      "twitter": "https://twitter.com/astro_ricky",
      "instagram": "https://www.instagram.com/astro_ricky/",
      "wiki": "https://en.wikipedia.org/wiki/Richard_R._Arnold",
      "agency": {
        "id": 44,
        "url": "https://ll.thespacedevs.com/2.2.0/agencies/44/?format=json",
        "name": "National Aeronautics and Space Administration",
        "featured": true,
        "type": "Government",
        "country_code": "USA",
        "abbrev": "NASA",
        "description": "The National Aeronautics and Space Administration is an independent agency of the executive branch of the United States federal government responsible for the civilian space program, as well as aeronautics and aerospace research. NASA have many launch facilities but most are inactive. The most commonly used pad will be LC-39B at Kennedy Space Center in Florida.",
        "administrator": "Administrator: Bill Nelson",
        "founding_year": "1958",
        "launchers": "Space Shuttle | SLS",
        "spacecraft": "Orion",
        "parent": null,
        "image_url": "https://spacelaunchnow-prod-east.nyc3.digitaloceanspaces.com/media/agency_images/national2520aeronautics2520and2520space2520administration_image_20190207032448.jpeg",
        "logo_url": "https://spacelaunchnow-prod-east.nyc3.digitaloceanspaces.com/media/logo/national2520aeronautics2520and2520space2520administration_logo_20190207032448.png"
      },
      "profile_image": "https://spacelaunchnow-prod-east.nyc3.digitaloceanspaces.com/media/astronaut_images/richard_r._arno_image_20220911034515.jpeg",
      "profile_image_thumbnail": "https://spacelaunchnow-prod-east.nyc3.digitaloceanspaces.com/media/astronaut_images/richard_r._arno_thumbnail_20220911034515.jpeg",
      "flights_count": 2,
      "landings_count": 2,
      "spacewalks_count": 5,
      "last_flight": "2018-03-21T17:44:23Z",
      "first_flight": "2009-03-15T23:43:00Z"
    },
    {
      "id": 20,
      "url": "https://ll.thespacedevs.com/2.2.0/astronaut/20/?format=json",
      "name": "Serena Auñón-Chancellor",
      "status": {
        "id": 1,
        "name": "Active"
      },
      "type": {
        "id": 2,
        "name": "Government"
      },
      "in_space": false,
      "time_in_space": "P196DT17H49M19S",
      "eva_time": "P0D",
      "age": 47,
      "date_of_birth": "1976-04-09",
      "date_of_death": null,
      "nationality": "American",
      "bio": "Serena Maria Auñón-Chancellor is an American physician, engineer, and NASA astronaut. She has been in space since June 6, 2018, serving as a flight engineer in Expedition 56/57 to the International Space Station.",
      "twitter": "https://twitter.com/AstroSerena",
      "instagram": null,
      "wiki": "https://en.wikipedia.org/wiki/Serena_Au%C3%B1%C3%B3n-Chancellor",
      "agency": {
        "id": 44,
        "url": "https://ll.thespacedevs.com/2.2.0/agencies/44/?format=json",
        "name": "National Aeronautics and Space Administration",
        "featured": true,
        "type": "Government",
        "country_code": "USA",
        "abbrev": "NASA",
        "description": "The National Aeronautics and Space Administration is an independent agency of the executive branch of the United States federal government responsible for the civilian space program, as well as aeronautics and aerospace research. NASA have many launch facilities but most are inactive. The most commonly used pad will be LC-39B at Kennedy Space Center in Florida.",
        "administrator": "Administrator: Bill Nelson",
        "founding_year": "1958",
        "launchers": "Space Shuttle | SLS",
        "spacecraft": "Orion",
        "parent": null,
        "image_url": "https://spacelaunchnow-prod-east.nyc3.digitaloceanspaces.com/media/agency_images/national2520aeronautics2520and2520space2520administration_image_20190207032448.jpeg",
        "logo_url": "https://spacelaunchnow-prod-east.nyc3.digitaloceanspaces.com/media/logo/national2520aeronautics2520and2520space2520administration_logo_20190207032448.png"
      },
      "profile_image": "https://spacelaunchnow-prod-east.nyc3.digitaloceanspaces.com/media/astronaut_images/serena_au25c3_image_20220911033856.jpeg",
      "profile_image_thumbnail": "https://spacelaunchnow-prod-east.nyc3.digitaloceanspaces.com/media/astronaut_images/serena_au25c3_thumbnail_20220911033856.jpeg",
      "flights_count": 1,
      "landings_count": 1,
      "spacewalks_count": 0,
      "last_flight": "2018-06-06T11:12:41Z",
      "first_flight": "2018-06-06T11:12:41Z"
    },
    {
      "id": 21,
      "url": "https://ll.thespacedevs.com/2.2.0/astronaut/21/?format=json",
      "name": "Alan Shepard",
      "status": {
        "id": 11,
        "name": "Deceased"
      },
      "type": {
        "id": 2,
        "name": "Government"
      },
      "in_space": false,
      "time_in_space": "P9DT17M20S",
      "eva_time": "PT9H22M31S",
      "age": 74,
      "date_of_birth": "1923-11-18",
      "date_of_death": "1998-07-21",
      "nationality": "American",
      "bio": "Rear Admiral Alan Bartlett Shepard Jr. was an American astronaut, naval aviator, test pilot, and businessman. In 1961 he became the first American to travel into space, and in 1971 he walked on the Moon.",
      "twitter": null,
      "instagram": null,
      "wiki": "https://en.wikipedia.org/wiki/Alan_Shepard",
      "agency": {
        "id": 44,
        "url": "https://ll.thespacedevs.com/2.2.0/agencies/44/?format=json",
        "name": "National Aeronautics and Space Administration",
        "featured": true,
        "type": "Government",
        "country_code": "USA",
        "abbrev": "NASA",
        "description": "The National Aeronautics and Space Administration is an independent agency of the executive branch of the United States federal government responsible for the civilian space program, as well as aeronautics and aerospace research. NASA have many launch facilities but most are inactive. The most commonly used pad will be LC-39B at Kennedy Space Center in Florida.",
        "administrator": "Administrator: Bill Nelson",
        "founding_year": "1958",
        "launchers": "Space Shuttle | SLS",
        "spacecraft": "Orion",
        "parent": null,
        "image_url": "https://spacelaunchnow-prod-east.nyc3.digitaloceanspaces.com/media/agency_images/national2520aeronautics2520and2520space2520administration_image_20190207032448.jpeg",
        "logo_url": "https://spacelaunchnow-prod-east.nyc3.digitaloceanspaces.com/media/logo/national2520aeronautics2520and2520space2520administration_logo_20190207032448.png"
      },
      "profile_image": "https://spacelaunchnow-prod-east.nyc3.digitaloceanspaces.com/media/astronaut_images/alan2520shepard_image_20181128141007.jpg",
      "profile_image_thumbnail": "https://spacelaunchnow-prod-east.nyc3.digitaloceanspaces.com/media/astronaut_images/alan_shepard_thumbnail_20220911034153.jpeg",
      "flights_count": 2,
      "landings_count": 2,
      "spacewalks_count": 2,
      "last_flight": "1971-01-31T21:03:02Z",
      "first_flight": "1961-05-05T14:34:13Z"
    }
  ]
}
